<?xml version="1.0" standalone="no"?>
<!DOCTYPE svg PUBLIC "-//W3C//DTD SVG 20010904//EN"
 "http://www.w3.org/TR/2001/REC-SVG-20010904/DTD/svg10.dtd">
<svg version="1.0" xmlns="http://www.w3.org/2000/svg"
 width="237.000000pt" height="207.000000pt" viewBox="0 0 237.000000 207.000000"
 preserveAspectRatio="xMidYMid meet">
<metadata>
Created by potrace 1.16, written by Peter Selinger 2001-2019
</metadata>
<g transform="translate(0.000000,207.000000) scale(0.100000,-0.100000)"
fill="#000000" stroke="none">
<path d="M957 1972 c-15 -17 -17 -68 -17 -525 l0 -507 -130 0 -130 0 0 223 c0
159 -4 229 -13 247 l-13 25 -207 3 c-132 1 -215 -1 -227 -8 -20 -10 -20 -23
-20 -545 l0 -534 22 -15 c20 -14 127 -16 958 -16 831 0 938 2 958 16 l22 15 0
683 c0 517 -3 685 -12 694 -9 9 -72 12 -224 12 -184 0 -213 -2 -225 -17 -11
-12 -15 -63 -17 -205 l-3 -188 -130 0 -129 0 0 313 c-1 244 -4 316 -14 330
-12 15 -35 17 -223 17 -191 0 -211 -2 -226 -18z m353 -812 l0 -730 -130 0
-130 0 0 730 0 730 130 0 130 0 0 -730z m740 -125 l0 -605 -130 0 -130 0 0
605 0 605 130 0 130 0 0 -605z m-1480 -155 l0 -450 -130 0 -130 0 0 450 0 450
130 0 130 0 0 -450z m1110 -55 l0 -395 -130 0 -130 0 0 395 0 395 130 0 130 0
0 -395z m-740 -195 l0 -200 -130 0 -130 0 0 200 0 200 130 0 130 0 0 -200z"/>
<path d="M76 114 c-20 -20 -20 -48 0 -68 14 -14 128 -16 1104 -16 976 0 1090
2 1104 16 20 20 20 48 0 68 -14 14 -128 16 -1104 16 -976 0 -1090 -2 -1104
-16z"/>
</g>
</svg>
