<?xml version="1.0" encoding="UTF-16"?>
<!DOCTYPE svg PUBLIC "-//W3C//DTD SVG 1.1//EN" "http://www.w3.org/Graphics/SVG/1.1/DTD/svg11.dtd">
<!-- Creator: CorelDRAW 2019 (64-Bit) -->
<svg xmlns="http://www.w3.org/2000/svg" xml:space="preserve" width="12.1948mm" height="12.1948mm" version="1.1" style="shape-rendering:geometricPrecision; text-rendering:geometricPrecision; image-rendering:optimizeQuality; fill-rule:evenodd; clip-rule:evenodd"
viewBox="0 0 54.15 54.15"
 xmlns:xlink="http://www.w3.org/1999/xlink">
 <defs>
  <style type="text/css">
   <![CDATA[
    .fil0 {fill:#E04F4F}
    .fil1 {fill:#FEFEFE;fill-rule:nonzero}
   ]]>
  </style>
 </defs>
 <g id="Layer_x0020_1">
  <metadata id="CorelCorpID_0Corel-Layer"/>
  <g id="_2238734483520">
   <circle class="fil0" cx="27.08" cy="27.08" r="27.08"/>
   <path class="fil1" d="M42.33 26.05l-21.29 -10.61c-0.42,-0.21 -0.93,-0.04 -1.14,0.38l-4.54 9.11c-0.1,0.2 -0.12,0.43 -0.05,0.65 0.07,0.21 0.22,0.39 0.43,0.49l6.36 3.17 -0.56 1.13c-0.21,0.42 -0.04,0.93 0.38,1.14l0.2 0.1 -1.1 1.95 -6.46 0c-0.6,-1.16 -1.81,-1.96 -3.21,-1.96l0 7.22c1.37,0 2.55,-0.76 3.17,-1.88l7.49 0c0.61,0 1.18,-0.33 1.48,-0.87l1.66 -2.96 0.29 0.14c0.42,0.21 0.93,0.04 1.14,-0.38l0.56 -1.13 4.75 2.37c0.27,0.14 0.6,0.12 0.85,-0.06l1.31 -0.89 2.34 1.17c0.12,0.06 0.25,0.09 0.38,0.09 0.09,0 0.18,-0.01 0.27,-0.04 0.21,-0.07 0.39,-0.22 0.49,-0.43l2.4 -4.8 2.48 -1.64c0.25,-0.17 0.4,-0.46 0.38,-0.76 -0.02,-0.3 -0.2,-0.57 -0.47,-0.71z"/>
  </g>
 </g>
</svg>
