<?xml version="1.0" encoding="UTF-8"?>
<!DOCTYPE svg PUBLIC "-//W3C//DTD SVG 1.1//EN" "http://www.w3.org/Graphics/SVG/1.1/DTD/svg11.dtd">
<!-- Creator: CorelDRAW 2019 (64-Bit) -->
<svg xmlns="http://www.w3.org/2000/svg" xml:space="preserve" width="5.7653mm" height="8.2184mm" version="1.1" style="shape-rendering:geometricPrecision; text-rendering:geometricPrecision; image-rendering:optimizeQuality; fill-rule:evenodd; clip-rule:evenodd"
viewBox="0 0 176.7 251.88"
 xmlns:xlink="http://www.w3.org/1999/xlink"
 xmlns:xodm="http://www.corel.com/coreldraw/odm/2003">
 <defs>
  <style type="text/css">
   <![CDATA[
    .str0 {stroke:#FEFEFE;stroke-width:6.13;stroke-miterlimit:22.9256}
    .fil1 {fill:#FEFEFE;fill-rule:nonzero}
    .fil0 {fill:#EF7F1A;fill-rule:nonzero}
   ]]>
  </style>
 </defs>
 <g id="Layer_x0020_1">
  <metadata id="CorelCorpID_0Corel-Layer"/>
  <path class="fil0 str0" d="M88.34 3.06c-47.02,0 -85.28,38.26 -85.28,85.28 0,45.27 77.37,151.02 80.67,155.5l3.07 4.19c0.36,0.49 0.93,0.78 1.54,0.78 0.61,0 1.18,-0.29 1.54,-0.78l3.07 -4.19c3.29,-4.48 80.67,-110.23 80.67,-155.5 -0,-47.02 -38.26,-85.28 -85.29,-85.28z"/>
  <path class="fil1" d="M135.96 73.63l-66.44 -33.13c-1.31,-0.65 -2.9,-0.12 -3.55,1.19l-14.17 28.43c-0.31,0.63 -0.36,1.35 -0.14,2.02 0.22,0.67 0.7,1.22 1.33,1.53l19.84 9.89 -1.76 3.53c-0.65,1.31 -0.12,2.9 1.19,3.55l0.63 0.31 -3.42 6.09 -20.15 0c-1.88,-3.63 -5.66,-6.11 -10.02,-6.11l0 22.55c4.26,0 7.97,-2.37 9.89,-5.85l23.38 0c1.91,0 3.68,-1.03 4.62,-2.7l5.19 -9.24 0.9 0.45c1.31,0.65 2.9,0.12 3.55,-1.19l1.76 -3.53 14.82 7.39c0.86,0.43 1.87,0.36 2.66,-0.18l4.09 -2.76 7.3 3.64c0.37,0.18 0.78,0.28 1.18,0.28 0.29,0 0.57,-0.05 0.84,-0.14 0.67,-0.22 1.22,-0.7 1.53,-1.33l7.48 -14.99 7.75 -5.11c0.79,-0.52 1.24,-1.42 1.19,-2.37 -0.06,-0.94 -0.61,-1.79 -1.46,-2.21z"/>
 </g>
</svg>
