<?xml version="1.0" encoding="UTF-16"?>
<!DOCTYPE svg PUBLIC "-//W3C//DTD SVG 1.1//EN" "http://www.w3.org/Graphics/SVG/1.1/DTD/svg11.dtd">
<!-- Creator: CorelDRAW 2019 (64-Bit) -->
<svg xmlns="http://www.w3.org/2000/svg" xml:space="preserve" width="6.9739mm" height="6.974mm" version="1.1" style="shape-rendering:geometricPrecision; text-rendering:geometricPrecision; image-rendering:optimizeQuality; fill-rule:evenodd; clip-rule:evenodd"
viewBox="0 0 43.72 43.72"
 xmlns:xlink="http://www.w3.org/1999/xlink"
 xmlns:xodm="http://www.corel.com/coreldraw/odm/2003">
 <defs>
  <style type="text/css">
   <![CDATA[
    .fil1 {fill:#FEFEFE}
    .fil0 {fill:#56698F}
   ]]>
  </style>
 </defs>
 <g id="Layer_x0020_1">
  <metadata id="CorelCorpID_0Corel-Layer"/>
  <g id="_2458950635136">
   <rect class="fil0" x="-0" y="-0" width="43.72" height="43.72" rx="21.86" ry="21.86"/>
   <path class="fil1" d="M32.84 20.52c-0.44,0 -0.8,-0.36 -0.8,-0.8 0,-3.07 -1.2,-5.96 -3.37,-8.14 -0.31,-0.31 -0.31,-0.82 0,-1.14 0.31,-0.31 0.82,-0.31 1.14,0 2.48,2.48 3.84,5.77 3.84,9.27 0,0.44 -0.36,0.8 -0.8,0.8l0 0zm0 0z"/>
   <path class="fil1" d="M10.89 20.52c-0.44,0 -0.8,-0.36 -0.8,-0.8 0,-3.5 1.36,-6.8 3.84,-9.27 0.31,-0.31 0.82,-0.31 1.14,0 0.31,0.31 0.31,0.82 0,1.14 -2.17,2.17 -3.37,5.06 -3.37,8.14 0,0.44 -0.36,0.8 -0.8,0.8l0 0zm0 0z"/>
   <path class="fil1" d="M21.86 34.71c-2.21,0 -4.02,-1.8 -4.02,-4.02 0,-0.44 0.36,-0.8 0.8,-0.8 0.44,0 0.8,0.36 0.8,0.8 0,1.33 1.08,2.41 2.41,2.41 1.33,0 2.41,-1.08 2.41,-2.41 0,-0.44 0.36,-0.8 0.8,-0.8 0.44,0 0.8,0.36 0.8,0.8 0,2.21 -1.8,4.02 -4.01,4.02l0 0zm0 0z"/>
   <path class="fil1" d="M30.69 31.5l-17.66 0c-1.03,0 -1.87,-0.84 -1.87,-1.87 0,-0.55 0.24,-1.07 0.66,-1.42 1.63,-1.38 2.56,-3.38 2.56,-5.49l0 -2.98c0,-4.13 3.36,-7.49 7.49,-7.49 4.13,0 7.49,3.36 7.49,7.49l0 2.98c0,2.12 0.93,4.12 2.55,5.49 0.43,0.36 0.67,0.88 0.67,1.43 0,1.03 -0.84,1.87 -1.87,1.87l0 0zm-8.83 -17.66c-3.25,0 -5.89,2.64 -5.89,5.89l0 2.98c0,2.59 -1.14,5.04 -3.12,6.71 -0.04,0.03 -0.1,0.1 -0.1,0.21 0,0.15 0.12,0.27 0.27,0.27l17.66 0c0.15,0 0.27,-0.12 0.27,-0.27 0,-0.11 -0.06,-0.17 -0.09,-0.2 -1.98,-1.68 -3.12,-4.12 -3.12,-6.71l0 -2.98c0,-3.25 -2.64,-5.89 -5.89,-5.89zm0 0z"/>
  </g>
 </g>
</svg>
